Tolstoy, Dickens, and Twain
================
Gabriel Kahn
6/8/2019

    ## # A tibble: 16,236 x 7
    ##    gutenberg_author~ author   alias birthdate deathdate wikipedia  aliases 
    ##                <int> <chr>    <chr>     <int>     <int> <chr>      <chr>   
    ##  1                 1 United ~ <NA>         NA        NA <NA>       <NA>    
    ##  2                 3 Lincoln~ <NA>       1809      1865 http://en~ United ~
    ##  3                 4 Henry, ~ <NA>       1736      1799 http://en~ <NA>    
    ##  4                 5 Adam, P~ <NA>         NA        NA <NA>       <NA>    
    ##  5                 7 Carroll~ Dodg~      1832      1898 http://en~ <NA>    
    ##  6                 8 United ~ <NA>         NA        NA <NA>       Agency,~
    ##  7                 9 Melvill~ Melv~      1819      1891 http://en~ <NA>    
    ##  8                10 Barrie,~ Barr~      1860      1937 http://en~ <NA>    
    ##  9                12 Smith, ~ Smit~      1805      1844 http://en~ <NA>    
    ## 10                14 Madison~ Unit~      1751      1836 http://en~ <NA>    
    ## # ... with 16,226 more rows

    ## # A tibble: 214 x 8
    ##    gutenberg_id title author gutenberg_autho~ language gutenberg_books~
    ##           <int> <chr> <chr>             <int> <chr>    <chr>           
    ##  1           70 What~ Twain~               53 en       <NA>            
    ##  2           74 The ~ Twain~               53 en       Banned Books fr~
    ##  3           76 Adve~ Twain~               53 en       Best Books Ever~
    ##  4           86 A Co~ Twain~               53 en       Precursors of S~
    ##  5           91 Tom ~ Twain~               53 en       <NA>            
    ##  6           93 Tom ~ Twain~               53 en       <NA>            
    ##  7          102 The ~ Twain~               53 en       <NA>            
    ##  8          119 A Tr~ Twain~               53 en       <NA>            
    ##  9          142 The ~ Twain~               53 en       <NA>            
    ## 10          245 Life~ Twain~               53 en       <NA>            
    ## # ... with 204 more rows, and 2 more variables: rights <chr>,
    ## #   has_text <lgl>
…
